Bank 6372 Project 2
…
bank

## # A tibble: 41,188 x 21
##      age job   marital education default housing loan  contact month day_of_week
##    <dbl> <chr> <chr>   <chr>     <chr>   <chr>   <chr> <chr>   <chr> <chr>      
##  1    56 hous~ married basic.4y  no      no      no    teleph~ may   mon        
##  2    57 serv~ married high.sch~ unknown no      no    teleph~ may   mon        
##  3    37 serv~ married high.sch~ no      yes     no    teleph~ may   mon        
##  4    40 admi~ married basic.6y  no      no      no    teleph~ may   mon        
##  5    56 serv~ married high.sch~ no      no      yes   teleph~ may   mon        
##  6    45 serv~ married basic.9y  unknown no      no    teleph~ may   mon        
##  7    59 admi~ married professi~ no      no      no    teleph~ may   mon        
##  8    41 blue~ married unknown   unknown no      no    teleph~ may   mon        
##  9    24 tech~ single  professi~ no      yes     no    teleph~ may   mon        
## 10    25 serv~ single  high.sch~ no      yes     no    teleph~ may   mon        
## # ... with 41,178 more rows, and 11 more variables: duration <dbl>,
## #   campaign <dbl>, pdays <dbl>, previous <dbl>, poutcome <chr>,
## #   emp.var.rate <dbl>, cons.price.idx <dbl>, cons.conf.idx <dbl>,
## #   euribor3m <dbl>, nr.employed <dbl>, y <chr>
…
Missing values are disguised as unknown values in the data set and we devised a code to show them all

default 8597 education 1731 housing 990 loan 990 job 330 marital 80

For Marital, housing and job it is safe to remove the unknown values as theyre so little they wont have an effect on the rest of the distribution

Looking at default is has no information as it is highly skewed towards no as only 3 counts comes up as yes so we are removing default as well.

bank %>% 
  summarise_all(list(~sum(. == "unknown"))) %>% 
  gather(key = "variable", value = "nr_unknown") %>% 
  arrange(-nr_unknown)

## # A tibble: 21 x 2
##    variable    nr_unknown
##    <chr>            <int>
##  1 default           8597
##  2 education         1731
##  3 housing            990
##  4 loan               990
##  5 job                330
##  6 marital             80
##  7 age                  0
##  8 contact              0
##  9 month                0
## 10 day_of_week          0
## # ... with 11 more rows
…
